{
  "images" : [
    {
      "idiom" : "universal",
      "filename" : "Simulator Screen Shot - iPhone SE - 2017-11-19 at 17.17.37 (1).png",
      "scale" : "1x"
    },
    {
      "idiom" : "universal",
      "scale" : "2x"
    },
    {
      "idiom" : "universal",
      "scale" : "3x"
    }
  ],
  "info" : {
    "version" : 1,
    "author" : "xcode"
  }
}